{
    "value": [
        "q",
        "p",
        "b",
        "z",
        "6",
        "n",
        "d",
        "9",
        "4",
        "@",
        "6",
        "4",
        "o",
        "p",
        "o",
        "k",
        "k",
        "e",
        ".",
        "c",
        "o",
        "m"
    ],
    "text": "qpbz6nd94@64opokke.com"
}