{
    "value": [
        "q",
        "h",
        "h",
        "z",
        "t",
        "4",
        "h",
        "e",
        "e",
        "@",
        "v",
        "d",
        "2",
        "a",
        "x",
        "g",
        "4",
        "h",
        "h",
        ".",
        "c",
        "o",
        "m"
    ],
    "text": "qhhzt4hee@vd2axg4hh.com"
}