{
    "value": [
        "u",
        "h",
        "6",
        "h",
        "f",
        "d",
        "s",
        "t",
        "g",
        "@",
        "4",
        "9",
        "k",
        "w",
        "s",
        "x",
        "v",
        "d",
        "h",
        ".",
        "c",
        "o",
        "m"
    ],
    "text": "uh6hfdstg@49kwsxvdh.com"
}