{
    "value": [
        "l",
        "s",
        "t",
        "a",
        "3",
        "h",
        "7",
        "w",
        "@",
        "u",
        "5",
        "2",
        "h",
        "d",
        "n",
        "6",
        "t",
        "6",
        ".",
        "c",
        "o",
        "m"
    ],
    "text": "lsta3h7w@u52hdn6t6.com"
}