{
    "value": [
        "v",
        "b",
        "9",
        "i",
        "m",
        "7",
        "t",
        "y",
        "a",
        "@",
        "s",
        "h",
        "j",
        "s",
        "f",
        "e",
        "8",
        "z",
        ".",
        "c",
        "o",
        "m"
    ],
    "text": "vb9im7tya@shjsfe8z.com"
}