{
    "value": [
        "c",
        "7",
        "l",
        "1",
        "z",
        "5",
        "q",
        "m",
        "5",
        "0",
        "y",
        "4",
        "4",
        "l",
        "k",
        "g",
        "5",
        "s",
        ".",
        "c",
        "o",
        "m"
    ],
    "text": "c7l1z5qm50y44lkg5s.com"
}