{
    "value": [
        "e",
        "f",
        "u",
        "y",
        "4",
        "@",
        "z",
        "6",
        "l",
        "7",
        "f",
        "h",
        ".",
        "c",
        "o",
        "m"
    ],
    "text": "efuy4@z6l7fh.com"
}