{
    "value": [
        "k",
        "8",
        "8",
        "s",
        "9",
        "f",
        "@",
        "d",
        "y",
        "4",
        "k",
        "0",
        "r",
        ".",
        "c",
        "o",
        "m"
    ],
    "text": "k88s9f@dy4k0r.com"
}