{
    "value": [
        "s",
        "e",
        "b",
        "a",
        "s",
        "t",
        "i",
        "a",
        "n",
        "d",
        "l",
        "s",
        "@",
        "o",
        "k",
        "t",
        "a",
        "n",
        "a",
        ".",
        "c",
        "o",
        "m"
    ],
    "text": "sebastiandls@oktana.com"
}