{
    "value": [
        "c",
        "t",
        "l",
        "l",
        "q",
        "k",
        "@",
        "c",
        "8",
        "6",
        "r",
        "v",
        ".",
        "c",
        "o",
        "m"
    ],
    "text": "ctllqk@c86rv.com"
}