{
    "value": [
        "y",
        "0",
        "h",
        "0",
        "9",
        "z",
        "0",
        "e",
        "d",
        "@",
        "d",
        "g",
        "e",
        "b",
        "c",
        "m",
        "h",
        "z",
        "u",
        ".",
        "c",
        "o",
        "m"
    ],
    "text": "y0h09z0ed@dgebcmhzu.com"
}