{
    "value": [
        "6",
        "l",
        "j",
        "y",
        "i",
        "l",
        "z",
        "h",
        "g",
        "@",
        "a",
        "p",
        "7",
        "f",
        "2",
        "c",
        "4",
        "7",
        "d",
        ".",
        "c",
        "o",
        "m"
    ],
    "text": "6ljyilzhg@ap7f2c47d.com"
}