{
    "message": "no such element: Unable to locate element: {\"method\":\"css selector\",\"selector\":\"div.top-nav__btn\"}",
    "type": "RuntimeError",
    "seleniumStack": {
        "type": "NoSuchElement",
        "message": "An element could not be located on the page using the given search parameters.",
        "orgStatusMessage": "no such element: Unable to locate element: {\"method\":\"css selector\",\"selector\":\"div.top-nav__btn\"}\n  (Session info: chrome=71.0.3578.98)\n  (Driver info: chromedriver=2.43.600229 (3fae4d0cda5334b4f533bede5a4787f7b832d052),platform=Mac OS X 10.14.2 x86_64)"
    }
}