{
    "value": [
        "z",
        "8",
        "b",
        "w",
        "6",
        "e",
        "z",
        "5",
        "q",
        "@",
        "c",
        "a",
        "d",
        "w",
        "p",
        "6",
        "s",
        "k",
        ".",
        "c",
        "o",
        "m"
    ],
    "text": "z8bw6ez5q@cadwp6sk.com"
}