{
    "value": [
        "p",
        "a",
        "e",
        "7",
        "w",
        "p",
        "@",
        "v",
        "m",
        "k",
        "l",
        "w",
        "u",
        ".",
        "c",
        "o",
        "m"
    ],
    "text": "pae7wp@vmklwu.com"
}