{
    "value": [
        "r",
        "n",
        "8",
        "f",
        "6",
        "a",
        "n",
        "6",
        "k",
        "w",
        "r",
        ".",
        "c",
        "o",
        "m"
    ],
    "text": "rn8f6an6kwr.com"
}