{
    "value": [
        "s",
        "d",
        "d",
        "x",
        "7",
        "m",
        "u",
        "x",
        "5",
        "m",
        "a",
        "m",
        ".",
        "c",
        "o",
        "m"
    ],
    "text": "sddx7mux5mam.com"
}