{
    "value": [
        "m",
        "f",
        "c",
        "s",
        "k",
        "e",
        "@",
        "n",
        "t",
        "d",
        "6",
        "l",
        "6",
        ".",
        "c",
        "o",
        "m"
    ],
    "text": "mfcske@ntd6l6.com"
}