{
    "value": [
        "i",
        "6",
        "d",
        "f",
        "b",
        "@",
        "k",
        "z",
        "7",
        "u",
        "9",
        "8",
        ".",
        "c",
        "o",
        "m"
    ],
    "text": "i6dfb@kz7u98.com"
}