{
    "value": [
        "7",
        "q",
        "h",
        "m",
        "6",
        "a",
        "@",
        "0",
        "v",
        "3",
        "m",
        "9",
        "c",
        ".",
        "c",
        "o",
        "m"
    ],
    "text": "7qhm6a@0v3m9c.com"
}