{
    "value": [
        "j",
        "i",
        "4",
        "5",
        "w",
        "h",
        "g",
        "u",
        "l",
        "@",
        "g",
        "b",
        "s",
        "d",
        "u",
        "f",
        "u",
        "e",
        ".",
        "c",
        "o",
        "m"
    ],
    "text": "ji45whgul@gbsdufue.com"
}