{
    "value": [
        "a",
        "i",
        "9",
        "t",
        "s",
        "b",
        "g",
        "8",
        "e",
        "@",
        "i",
        "8",
        "v",
        "0",
        "9",
        "9",
        "v",
        "x",
        ".",
        "c",
        "o",
        "m"
    ],
    "text": "ai9tsbg8e@i8v099vx.com"
}