{
    "value": [
        "v",
        "o",
        "u",
        "m",
        "3",
        "5",
        "@",
        "e",
        "t",
        "6",
        "g",
        "t",
        ".",
        "c",
        "o",
        "m"
    ],
    "text": "voum35@et6gt.com"
}