{
    "value": [
        "0",
        "h",
        "m",
        "t",
        "p",
        "4",
        "a",
        "q",
        "h",
        "@",
        "m",
        "g",
        "l",
        "5",
        "4",
        "k",
        "d",
        "p",
        "i",
        ".",
        "c",
        "o",
        "m"
    ],
    "text": "0hmtp4aqh@mgl54kdpi.com"
}