{
    "value": [
        "q",
        "5",
        "k",
        "d",
        "n",
        "1",
        "3",
        "n",
        "s",
        "@",
        "i",
        "6",
        "a",
        "d",
        "8",
        "0",
        "d",
        "q",
        ".",
        "c",
        "o",
        "m"
    ],
    "text": "q5kdn13ns@i6ad80dq.com"
}