{
    "value": [
        "z",
        "k",
        "q",
        "n",
        "v",
        "f",
        "f",
        "w",
        "2",
        "@",
        "e",
        "x",
        "z",
        "q",
        "5",
        "k",
        "m",
        "2",
        ".",
        "c",
        "o",
        "m"
    ],
    "text": "zkqnvffw2@exzq5km2.com"
}