{
    "value": [
        "p",
        "g",
        "q",
        "0",
        "m",
        "@",
        "g",
        "7",
        "o",
        "l",
        "i",
        "w",
        ".",
        "c",
        "o",
        "m"
    ],
    "text": "pgq0m@g7oliw.com"
}