{
    "value": [
        "s",
        "r",
        "9",
        "1",
        "n",
        "h",
        "@",
        "8",
        "9",
        "n",
        "g",
        "0",
        "a",
        ".",
        "c",
        "o",
        "m"
    ],
    "text": "sr91nh@89ng0a.com"
}