{
    "value": [
        "n",
        "y",
        "s",
        "6",
        "m",
        "@",
        "j",
        "d",
        "w",
        "v",
        "b",
        "8",
        ".",
        "c",
        "o",
        "m"
    ],
    "text": "nys6m@jdwvb8.com"
}