{
    "value": [
        "2",
        "r",
        "4",
        "6",
        "1",
        "3",
        "m",
        "8",
        "9",
        "@",
        "q",
        "b",
        "3",
        "b",
        "7",
        "s",
        "3",
        "1",
        ".",
        "c",
        "o",
        "m"
    ],
    "text": "2r4613m89@qb3b7s31.com"
}