{
    "value": [
        "l",
        "z",
        "b",
        "h",
        "o",
        "r",
        "l",
        "y",
        "e",
        "@",
        "s",
        "j",
        "8",
        "n",
        "c",
        "0",
        "i",
        "s",
        "r",
        ".",
        "c",
        "o",
        "m"
    ],
    "text": "lzbhorlye@sj8nc0isr.com"
}