{
    "value": [
        "a",
        "v",
        "5",
        "r",
        "m",
        "6",
        "g",
        "h",
        "e",
        "@",
        "n",
        "j",
        "9",
        "d",
        "f",
        "p",
        "y",
        "6",
        "5",
        ".",
        "c",
        "o",
        "m"
    ],
    "text": "av5rm6ghe@nj9dfpy65.com"
}