{
    "value": [
        "c",
        "8",
        "h",
        "c",
        "t",
        "p",
        "q",
        "4",
        "@",
        "d",
        "x",
        "6",
        "a",
        "b",
        "o",
        "6",
        "6",
        "i",
        ".",
        "c",
        "o",
        "m"
    ],
    "text": "c8hctpq4@dx6abo66i.com"
}