{
    "value": [
        "q",
        "j",
        "w",
        "l",
        "0",
        "y",
        "u",
        "u",
        "w",
        "@",
        "y",
        "8",
        "4",
        "i",
        "w",
        "a",
        "7",
        "9",
        ".",
        "c",
        "o",
        "m"
    ],
    "text": "qjwl0yuuw@y84iwa79.com"
}