{
    "value": [
        "5",
        "6",
        "n",
        "z",
        "j",
        "q",
        "@",
        "4",
        "z",
        "e",
        "z",
        "z",
        ".",
        "c",
        "o",
        "m"
    ],
    "text": "56nzjq@4zezz.com"
}