{
    "value": [
        "6",
        "y",
        "6",
        "t",
        "3",
        "g",
        "7",
        "a",
        "j",
        "@",
        "3",
        "8",
        "e",
        "d",
        "s",
        "c",
        "6",
        "r",
        "h",
        ".",
        "c",
        "o",
        "m"
    ],
    "text": "6y6t3g7aj@38edsc6rh.com"
}