{
    "value": [
        "q",
        "g",
        "0",
        "j",
        "r",
        "2",
        "@",
        "0",
        "n",
        "a",
        "9",
        "t",
        "p",
        ".",
        "c",
        "o",
        "m"
    ],
    "text": "qg0jr2@0na9tp.com"
}