{
    "value": [
        "4",
        "7",
        "4",
        "g",
        "3",
        "y",
        "j",
        "8",
        "@",
        "s",
        "o",
        "8",
        "r",
        "8",
        "p",
        "h",
        "e",
        ".",
        "c",
        "o",
        "m"
    ],
    "text": "474g3yj8@so8r8phe.com"
}