{
    "value": [
        "e",
        "a",
        "6",
        "k",
        "l",
        "i",
        "m",
        "3",
        "@",
        "d",
        "n",
        "n",
        "n",
        "a",
        "5",
        "g",
        "w",
        "l",
        ".",
        "c",
        "o",
        "m"
    ],
    "text": "ea6klim3@dnnna5gwl.com"
}