{
    "value": [
        "n",
        "k",
        "q",
        "e",
        "k",
        "y",
        "d",
        "q",
        "@",
        "b",
        "a",
        "e",
        "x",
        "4",
        "x",
        "o",
        "h",
        "7",
        ".",
        "c",
        "o",
        "m"
    ],
    "text": "nkqekydq@baex4xoh7.com"
}