{
    "value": [
        "b",
        "k",
        "z",
        "n",
        "9",
        "z",
        "c",
        "e",
        "@",
        "z",
        "j",
        "y",
        "1",
        "9",
        "m",
        "0",
        "j",
        "f",
        ".",
        "c",
        "o",
        "m"
    ],
    "text": "bkzn9zce@zjy19m0jf.com"
}