{
    "value": [
        "f",
        "9",
        "5",
        "b",
        "s",
        "0",
        "5",
        "6",
        "@",
        "v",
        "s",
        "r",
        "n",
        "l",
        "d",
        "g",
        "4",
        "m",
        ".",
        "c",
        "o",
        "m"
    ],
    "text": "f95bs056@vsrnldg4m.com"
}