{
    "value": [
        "r",
        "3",
        "5",
        "o",
        "v",
        "r",
        "o",
        "3",
        "g",
        "@",
        "i",
        "b",
        "b",
        "8",
        "b",
        "y",
        "3",
        "w",
        "7",
        ".",
        "c",
        "o",
        "m"
    ],
    "text": "r35ovro3g@ibb8by3w7.com"
}