{
    "value": [
        "u",
        "2",
        "y",
        "w",
        "6",
        "g",
        "f",
        "x",
        "d",
        "@",
        "t",
        "5",
        "p",
        "q",
        "4",
        "z",
        "v",
        "2",
        "f",
        "v",
        ".",
        "c",
        "o",
        "m"
    ],
    "text": "u2yw6gfxd@t5pq4zv2fv.com"
}