{
    "value": [
        "z",
        "w",
        "8",
        "d",
        "v",
        "3",
        "c",
        "s",
        "m",
        "@",
        "4",
        "z",
        "g",
        "v",
        "v",
        "7",
        "f",
        "l",
        "g",
        ".",
        "c",
        "o",
        "m"
    ],
    "text": "zw8dv3csm@4zgvv7flg.com"
}