{
    "value": [
        "7",
        "0",
        "e",
        "l",
        "3",
        "j",
        "6",
        "k",
        "@",
        "o",
        "u",
        "3",
        "3",
        "j",
        "5",
        "v",
        "e",
        "v",
        ".",
        "c",
        "o",
        "m"
    ],
    "text": "70el3j6k@ou33j5vev.com"
}