{
    "value": [
        "z",
        "i",
        "4",
        "n",
        "7",
        "v",
        "@",
        "k",
        "i",
        "z",
        "d",
        "d",
        ".",
        "c",
        "o",
        "m"
    ],
    "text": "zi4n7v@kizdd.com"
}