{
  "total" : 4,
  "items" : [ {
    "uid" : "fa5c068f39fa1b7837e52d720ab1609a",
    "name" : "Insert user information",
    "statistic" : {
      "failed" : 0,
      "broken" : 4,
      "skipped" : 0,
      "passed" : 0,
      "unknown" : 0,
      "total" : 4
    }
  }, {
    "uid" : "cf3d6a98dd5c324a718c37e76f508591",
    "name" : "Create new registry",
    "statistic" : {
      "failed" : 0,
      "broken" : 1,
      "skipped" : 0,
      "passed" : 4,
      "unknown" : 0,
      "total" : 5
    }
  }, {
    "uid" : "86aba14811df07198fdaa1231b615b61",
    "name" : "Update user information",
    "statistic" : {
      "failed" : 0,
      "broken" : 1,
      "skipped" : 0,
      "passed" : 3,
      "unknown" : 0,
      "total" : 4
    }
  }, {
    "uid" : "a93c944f3ad895d6702943de5cf9f399",
    "name" : "Performing a sign up",
    "statistic" : {
      "failed" : 0,
      "broken" : 0,
      "skipped" : 0,
      "passed" : 6,
      "unknown" : 0,
      "total" : 6
    }
  } ]
}