{
  "uid" : "83edc06c07f9ae9e47eb6dd1b683e4e2",
  "name" : "packages",
  "children" : [ {
    "name" : "Update user information Update user information with invalid email",
    "children" : [ {
      "name" : "An error is displayed showing that email is invalid",
      "uid" : "2ab102f15b57ad83",
      "parentUid" : "397a949ff522b52ba40c177fdfa377ef",
      "status" : "broken",
      "time" : {
        "start" : 1546258901856,
        "stop" : 1546258991862,
        "duration" : 90006
      },
      "flaky" : true,
      "parameters" : [ "chrome" ]
    }, {
      "name" : "I update all requiered fields for user information",
      "uid" : "c8dd6ea1ea5b057",
      "parentUid" : "397a949ff522b52ba40c177fdfa377ef",
      "status" : "passed",
      "time" : {
        "start" : 1546263804852,
        "stop" : 1546263805990,
        "duration" : 1138
      },
      "flaky" : false,
      "parameters" : [ "chrome" ]
    }, {
      "name" : "I insert email with missing \"@\"",
      "uid" : "7f7288eb8ed421c7",
      "parentUid" : "397a949ff522b52ba40c177fdfa377ef",
      "status" : "passed",
      "time" : {
        "start" : 1546429467547,
        "stop" : 1546429467735,
        "duration" : 188
      },
      "flaky" : false,
      "parameters" : [ "chrome" ]
    }, {
      "name" : "I am loged in and completed the registry",
      "uid" : "dcb4fd7e5bf576b2",
      "parentUid" : "397a949ff522b52ba40c177fdfa377ef",
      "status" : "passed",
      "time" : {
        "start" : 1546429471276,
        "stop" : 1546429481264,
        "duration" : 9988
      },
      "flaky" : false,
      "parameters" : [ "chrome" ]
    }, {
      "name" : "I am on the Information page",
      "uid" : "2b9a376c0418bbf3",
      "parentUid" : "397a949ff522b52ba40c177fdfa377ef",
      "status" : "passed",
      "time" : {
        "start" : 1546429481266,
        "stop" : 1546429484313,
        "duration" : 3047
      },
      "flaky" : false,
      "parameters" : [ "chrome" ]
    }, {
      "name" : "I insert all requiered fields for user information",
      "uid" : "8c45c5348706431a",
      "parentUid" : "397a949ff522b52ba40c177fdfa377ef",
      "status" : "passed",
      "time" : {
        "start" : 1546429484316,
        "stop" : 1546429486409,
        "duration" : 2093
      },
      "flaky" : true,
      "parameters" : [ "chrome" ]
    }, {
      "name" : "I insert email with missing \".com\"",
      "uid" : "636cc4ec633ad756",
      "parentUid" : "397a949ff522b52ba40c177fdfa377ef",
      "status" : "passed",
      "time" : {
        "start" : 1546429486414,
        "stop" : 1546429486665,
        "duration" : 251
      },
      "flaky" : false,
      "parameters" : [ "chrome" ]
    }, {
      "name" : "I select Save Changes",
      "uid" : "1a82d5f3b5240efc",
      "parentUid" : "397a949ff522b52ba40c177fdfa377ef",
      "status" : "passed",
      "time" : {
        "start" : 1546429486667,
        "stop" : 1546429486830,
        "duration" : 163
      },
      "flaky" : false,
      "parameters" : [ "chrome" ]
    }, {
      "name" : "An error is displayed saying to enter a valid email",
      "uid" : "876863cdcd67c8bf",
      "parentUid" : "397a949ff522b52ba40c177fdfa377ef",
      "status" : "passed",
      "time" : {
        "start" : 1546429486831,
        "stop" : 1546429486945,
        "duration" : 114
      },
      "flaky" : true,
      "parameters" : [ "chrome" ]
    }, {
      "name" : "undefined",
      "uid" : "15153237b74a1414",
      "parentUid" : "397a949ff522b52ba40c177fdfa377ef",
      "status" : "unknown",
      "time" : {
        "start" : 1546429486948,
        "stop" : 0,
        "duration" : -1546429486948
      },
      "flaky" : true,
      "parameters" : [ "chrome" ]
    } ],
    "uid" : "397a949ff522b52ba40c177fdfa377ef"
  }, {
    "name" : "Update user information Update user information",
    "children" : [ {
      "name" : "I update all requiered fields for user information",
      "uid" : "c6c4eedd67fb9b36",
      "parentUid" : "05913b5101b35703725ecf6b6bedb703",
      "status" : "passed",
      "time" : {
        "start" : 1546263775160,
        "stop" : 1546263776330,
        "duration" : 1170
      },
      "flaky" : false,
      "parameters" : [ "chrome" ]
    }, {
      "name" : "I am loged in and completed the registry",
      "uid" : "3d492dcd5d8dab55",
      "parentUid" : "05913b5101b35703725ecf6b6bedb703",
      "status" : "passed",
      "time" : {
        "start" : 1546429425714,
        "stop" : 1546429440313,
        "duration" : 14599
      },
      "flaky" : false,
      "parameters" : [ "chrome" ]
    }, {
      "name" : "I am on the Information page",
      "uid" : "a826eed28498115b",
      "parentUid" : "05913b5101b35703725ecf6b6bedb703",
      "status" : "passed",
      "time" : {
        "start" : 1546429440321,
        "stop" : 1546429444740,
        "duration" : 4419
      },
      "flaky" : false,
      "parameters" : [ "chrome" ]
    }, {
      "name" : "I insert all requiered fields for user information",
      "uid" : "ad63e79436ffea4e",
      "parentUid" : "05913b5101b35703725ecf6b6bedb703",
      "status" : "passed",
      "time" : {
        "start" : 1546429444742,
        "stop" : 1546429446273,
        "duration" : 1531
      },
      "flaky" : true,
      "parameters" : [ "chrome" ]
    }, {
      "name" : "I select Save Changes",
      "uid" : "540006be070bd604",
      "parentUid" : "05913b5101b35703725ecf6b6bedb703",
      "status" : "passed",
      "time" : {
        "start" : 1546429446273,
        "stop" : 1546429446431,
        "duration" : 158
      },
      "flaky" : false,
      "parameters" : [ "chrome" ]
    }, {
      "name" : "An information updated message will be displayed",
      "uid" : "fe44b4d7dff40d4c",
      "parentUid" : "05913b5101b35703725ecf6b6bedb703",
      "status" : "passed",
      "time" : {
        "start" : 1546429446432,
        "stop" : 1546429447520,
        "duration" : 1088
      },
      "flaky" : false,
      "parameters" : [ "chrome" ]
    }, {
      "name" : "undefined",
      "uid" : "f96164de67ee59de",
      "parentUid" : "05913b5101b35703725ecf6b6bedb703",
      "status" : "unknown",
      "time" : {
        "start" : 1546429447523,
        "stop" : 0,
        "duration" : -1546429447523
      },
      "flaky" : true,
      "parameters" : [ "chrome" ]
    } ],
    "uid" : "05913b5101b35703725ecf6b6bedb703"
  }, {
    "name" : "Update user information Update user information with used email",
    "children" : [ {
      "name" : "I update all requiered fields for user information",
      "uid" : "79be5b8c141ce075",
      "parentUid" : "b72052a79f5e125228298bcdc41eeb2b",
      "status" : "passed",
      "time" : {
        "start" : 1546263818669,
        "stop" : 1546263819855,
        "duration" : 1186
      },
      "flaky" : false,
      "parameters" : [ "chrome" ]
    }, {
      "name" : "I am loged in and completed the registry",
      "uid" : "b2c194337d5a028c",
      "parentUid" : "b72052a79f5e125228298bcdc41eeb2b",
      "status" : "passed",
      "time" : {
        "start" : 1546429490468,
        "stop" : 1546429499437,
        "duration" : 8969
      },
      "flaky" : false,
      "parameters" : [ "chrome" ]
    }, {
      "name" : "I am on the Information page",
      "uid" : "6e7902c549333bf6",
      "parentUid" : "b72052a79f5e125228298bcdc41eeb2b",
      "status" : "passed",
      "time" : {
        "start" : 1546429499439,
        "stop" : 1546429502481,
        "duration" : 3042
      },
      "flaky" : false,
      "parameters" : [ "chrome" ]
    }, {
      "name" : "I insert all requiered fields for user information",
      "uid" : "5752cd694cbe6dff",
      "parentUid" : "b72052a79f5e125228298bcdc41eeb2b",
      "status" : "passed",
      "time" : {
        "start" : 1546429502483,
        "stop" : 1546429504384,
        "duration" : 1901
      },
      "flaky" : true,
      "parameters" : [ "chrome" ]
    }, {
      "name" : "I insert used email",
      "uid" : "c3dcbcea084a14f5",
      "parentUid" : "b72052a79f5e125228298bcdc41eeb2b",
      "status" : "passed",
      "time" : {
        "start" : 1546429504385,
        "stop" : 1546429504629,
        "duration" : 244
      },
      "flaky" : true,
      "parameters" : [ "chrome" ]
    }, {
      "name" : "I select Save Changes",
      "uid" : "bc9c03a054549dbc",
      "parentUid" : "b72052a79f5e125228298bcdc41eeb2b",
      "status" : "passed",
      "time" : {
        "start" : 1546429504631,
        "stop" : 1546429504778,
        "duration" : 147
      },
      "flaky" : false,
      "parameters" : [ "chrome" ]
    }, {
      "name" : "An error message will be displayed",
      "uid" : "cfb96a392309d125",
      "parentUid" : "b72052a79f5e125228298bcdc41eeb2b",
      "status" : "passed",
      "time" : {
        "start" : 1546429504779,
        "stop" : 1546429505343,
        "duration" : 564
      },
      "flaky" : false,
      "parameters" : [ "chrome" ]
    }, {
      "name" : "undefined",
      "uid" : "39edc6a08ec343a0",
      "parentUid" : "b72052a79f5e125228298bcdc41eeb2b",
      "status" : "unknown",
      "time" : {
        "start" : 1546429505345,
        "stop" : 0,
        "duration" : -1546429505345
      },
      "flaky" : true,
      "parameters" : [ "chrome" ]
    } ],
    "uid" : "b72052a79f5e125228298bcdc41eeb2b"
  }, {
    "name" : "Update user information Update user information with missing field",
    "children" : [ {
      "name" : "I update all requiered fields for user information",
      "uid" : "8760fc1c1a9da95f",
      "parentUid" : "e641119005f24487a76a4ce2c70160da",
      "status" : "passed",
      "time" : {
        "start" : 1546263861915,
        "stop" : 1546263863564,
        "duration" : 1649
      },
      "flaky" : false,
      "parameters" : [ "chrome" ]
    }, {
      "name" : "I erase \"first\" field",
      "uid" : "13108bb4bf0ad6d6",
      "parentUid" : "e641119005f24487a76a4ce2c70160da",
      "status" : "passed",
      "time" : {
        "start" : 1546429521513,
        "stop" : 1546429521740,
        "duration" : 227
      },
      "flaky" : true,
      "parameters" : [ "chrome" ]
    }, {
      "name" : "I erase \"last\" field",
      "uid" : "d6d61dbca5436812",
      "parentUid" : "e641119005f24487a76a4ce2c70160da",
      "status" : "passed",
      "time" : {
        "start" : 1546429536771,
        "stop" : 1546429536957,
        "duration" : 186
      },
      "flaky" : true,
      "parameters" : [ "chrome" ]
    }, {
      "name" : "I am loged in and completed the registry",
      "uid" : "f878ea0865556e4f",
      "parentUid" : "e641119005f24487a76a4ce2c70160da",
      "status" : "passed",
      "time" : {
        "start" : 1546429539872,
        "stop" : 1546429547082,
        "duration" : 7210
      },
      "flaky" : false,
      "parameters" : [ "chrome" ]
    }, {
      "name" : "I am on the Information page",
      "uid" : "dab6c9cb1b929529",
      "parentUid" : "e641119005f24487a76a4ce2c70160da",
      "status" : "passed",
      "time" : {
        "start" : 1546429547084,
        "stop" : 1546429549883,
        "duration" : 2799
      },
      "flaky" : false,
      "parameters" : [ "chrome" ]
    }, {
      "name" : "I insert all requiered fields for user information",
      "uid" : "b97113daf164ab90",
      "parentUid" : "e641119005f24487a76a4ce2c70160da",
      "status" : "passed",
      "time" : {
        "start" : 1546429549885,
        "stop" : 1546429551191,
        "duration" : 1306
      },
      "flaky" : true,
      "parameters" : [ "chrome" ]
    }, {
      "name" : "I erase \"email\" field",
      "uid" : "d18b2f035369e9d6",
      "parentUid" : "e641119005f24487a76a4ce2c70160da",
      "status" : "passed",
      "time" : {
        "start" : 1546429551193,
        "stop" : 1546429551377,
        "duration" : 184
      },
      "flaky" : true,
      "parameters" : [ "chrome" ]
    }, {
      "name" : "I select Save Changes",
      "uid" : "a5bbe862c8685b5b",
      "parentUid" : "e641119005f24487a76a4ce2c70160da",
      "status" : "passed",
      "time" : {
        "start" : 1546429551379,
        "stop" : 1546429551509,
        "duration" : 130
      },
      "flaky" : false,
      "parameters" : [ "chrome" ]
    }, {
      "name" : "An error is displayed showing that a field cannot be empty",
      "uid" : "1dd73aeb6eeb44b9",
      "parentUid" : "e641119005f24487a76a4ce2c70160da",
      "status" : "passed",
      "time" : {
        "start" : 1546429551510,
        "stop" : 1546429551610,
        "duration" : 100
      },
      "flaky" : true,
      "parameters" : [ "chrome" ]
    }, {
      "name" : "undefined",
      "uid" : "23c4adac140b7e3e",
      "parentUid" : "e641119005f24487a76a4ce2c70160da",
      "status" : "unknown",
      "time" : {
        "start" : 1546429551616,
        "stop" : 0,
        "duration" : -1546429551616
      },
      "flaky" : true,
      "parameters" : [ "chrome" ]
    } ],
    "uid" : "e641119005f24487a76a4ce2c70160da"
  }, {
    "name" : "Insert user information Insert user information",
    "children" : [ {
      "name" : "I fill all requiered fields for user information",
      "uid" : "3eaf51940dada2cb",
      "parentUid" : "7f9da5faf4587ddd88cf5a0ec3b87d74",
      "status" : "broken",
      "time" : {
        "start" : 1546264618552,
        "stop" : 1546264618553,
        "duration" : 1
      },
      "flaky" : false,
      "parameters" : [ "chrome" ]
    }, {
      "name" : "After",
      "uid" : "ac965c85aff936c2",
      "parentUid" : "7f9da5faf4587ddd88cf5a0ec3b87d74",
      "status" : "broken",
      "time" : {
        "start" : 1546265281053,
        "stop" : 1546265282575,
        "duration" : 1522
      },
      "flaky" : true,
      "parameters" : [ "chrome" ]
    }, {
      "name" : "I am loged in and didn't complete the registry",
      "uid" : "c38ff7ca2d0265e1",
      "parentUid" : "7f9da5faf4587ddd88cf5a0ec3b87d74",
      "status" : "passed",
      "time" : {
        "start" : 1546429425706,
        "stop" : 1546429438846,
        "duration" : 13140
      },
      "flaky" : true,
      "parameters" : [ "chrome" ]
    }, {
      "name" : "I am on the Information page",
      "uid" : "aa073873d3aa4ec7",
      "parentUid" : "7f9da5faf4587ddd88cf5a0ec3b87d74",
      "status" : "passed",
      "time" : {
        "start" : 1546429438850,
        "stop" : 1546429444049,
        "duration" : 5199
      },
      "flaky" : false,
      "parameters" : [ "chrome" ]
    }, {
      "name" : "I insert all requiered fields for user information",
      "uid" : "cbc04b96b242aaab",
      "parentUid" : "7f9da5faf4587ddd88cf5a0ec3b87d74",
      "status" : "passed",
      "time" : {
        "start" : 1546429444052,
        "stop" : 1546429445491,
        "duration" : 1439
      },
      "flaky" : false,
      "parameters" : [ "chrome" ]
    }, {
      "name" : "I select Save Changes",
      "uid" : "969752deb1d76017",
      "parentUid" : "7f9da5faf4587ddd88cf5a0ec3b87d74",
      "status" : "passed",
      "time" : {
        "start" : 1546429445494,
        "stop" : 1546429445701,
        "duration" : 207
      },
      "flaky" : false,
      "parameters" : [ "chrome" ]
    }, {
      "name" : "An information updated message will be displayed",
      "uid" : "2a8a6b4d4ab45e87",
      "parentUid" : "7f9da5faf4587ddd88cf5a0ec3b87d74",
      "status" : "passed",
      "time" : {
        "start" : 1546429445705,
        "stop" : 1546429446797,
        "duration" : 1092
      },
      "flaky" : false,
      "parameters" : [ "chrome" ]
    }, {
      "name" : "undefined",
      "uid" : "4a727fa3ae27a60b",
      "parentUid" : "7f9da5faf4587ddd88cf5a0ec3b87d74",
      "status" : "unknown",
      "time" : {
        "start" : 1546429446800,
        "stop" : 0,
        "duration" : -1546429446800
      },
      "flaky" : true,
      "parameters" : [ "chrome" ]
    } ],
    "uid" : "7f9da5faf4587ddd88cf5a0ec3b87d74"
  }, {
    "name" : "Insert user information Insert user information with invalid email",
    "children" : [ {
      "name" : "I fill all requiered fields for user information",
      "uid" : "4370bb742933ad9c",
      "parentUid" : "85e34f0842f310f976c5fa71a359849e",
      "status" : "broken",
      "time" : {
        "start" : 1546264626205,
        "stop" : 1546264626208,
        "duration" : 3
      },
      "flaky" : true,
      "parameters" : [ "chrome" ]
    }, {
      "name" : "After",
      "uid" : "e43f605cbe3d883d",
      "parentUid" : "85e34f0842f310f976c5fa71a359849e",
      "status" : "broken",
      "time" : {
        "start" : 1546268280287,
        "stop" : 1546268370289,
        "duration" : 90002
      },
      "flaky" : true,
      "parameters" : [ "chrome" ]
    }, {
      "name" : "An error is displayed showing that email is invalid",
      "uid" : "a38384471ce79521",
      "parentUid" : "85e34f0842f310f976c5fa71a359849e",
      "status" : "broken",
      "time" : {
        "start" : 1546269292766,
        "stop" : 1546269382771,
        "duration" : 90005
      },
      "flaky" : true,
      "parameters" : [ "chrome" ]
    }, {
      "name" : "I insert email with missing \"@\"",
      "uid" : "b37043b2ff2ddd4f",
      "parentUid" : "85e34f0842f310f976c5fa71a359849e",
      "status" : "passed",
      "time" : {
        "start" : 1546429463523,
        "stop" : 1546429463786,
        "duration" : 263
      },
      "flaky" : false,
      "parameters" : [ "chrome" ]
    }, {
      "name" : "I am loged in and didn't complete the registry",
      "uid" : "d9ef0a790c1cb30c",
      "parentUid" : "85e34f0842f310f976c5fa71a359849e",
      "status" : "passed",
      "time" : {
        "start" : 1546429467400,
        "stop" : 1546429473690,
        "duration" : 6290
      },
      "flaky" : true,
      "parameters" : [ "chrome" ]
    }, {
      "name" : "I am on the Information page",
      "uid" : "7d17273d4129af0c",
      "parentUid" : "85e34f0842f310f976c5fa71a359849e",
      "status" : "passed",
      "time" : {
        "start" : 1546429473692,
        "stop" : 1546429477602,
        "duration" : 3910
      },
      "flaky" : false,
      "parameters" : [ "chrome" ]
    }, {
      "name" : "I insert all requiered fields for user information",
      "uid" : "79706ebbb8fce52e",
      "parentUid" : "85e34f0842f310f976c5fa71a359849e",
      "status" : "passed",
      "time" : {
        "start" : 1546429477605,
        "stop" : 1546429479795,
        "duration" : 2190
      },
      "flaky" : false,
      "parameters" : [ "chrome" ]
    }, {
      "name" : "I insert email with missing \".com\"",
      "uid" : "ac4bea115a6cd21d",
      "parentUid" : "85e34f0842f310f976c5fa71a359849e",
      "status" : "passed",
      "time" : {
        "start" : 1546429479797,
        "stop" : 1546429479984,
        "duration" : 187
      },
      "flaky" : false,
      "parameters" : [ "chrome" ]
    }, {
      "name" : "I select Save Changes",
      "uid" : "49f5c729ac494b30",
      "parentUid" : "85e34f0842f310f976c5fa71a359849e",
      "status" : "passed",
      "time" : {
        "start" : 1546429479986,
        "stop" : 1546429480177,
        "duration" : 191
      },
      "flaky" : false,
      "parameters" : [ "chrome" ]
    }, {
      "name" : "An error is displayed saying to enter a valid email",
      "uid" : "4dfcc21101f520e",
      "parentUid" : "85e34f0842f310f976c5fa71a359849e",
      "status" : "passed",
      "time" : {
        "start" : 1546429480179,
        "stop" : 1546429480296,
        "duration" : 117
      },
      "flaky" : false,
      "parameters" : [ "chrome" ]
    }, {
      "name" : "undefined",
      "uid" : "7f947a46538693fb",
      "parentUid" : "85e34f0842f310f976c5fa71a359849e",
      "status" : "unknown",
      "time" : {
        "start" : 1546429480299,
        "stop" : 0,
        "duration" : -1546429480299
      },
      "flaky" : true,
      "parameters" : [ "chrome" ]
    } ],
    "uid" : "85e34f0842f310f976c5fa71a359849e"
  }, {
    "name" : "Insert user information Insert user information with used email",
    "children" : [ {
      "name" : "I fill all requiered fields for user information",
      "uid" : "108683e4d2335a0b",
      "parentUid" : "b6ef6097f18e51ff1ace593ffd1012c7",
      "status" : "broken",
      "time" : {
        "start" : 1546264629714,
        "stop" : 1546264629717,
        "duration" : 3
      },
      "flaky" : false,
      "parameters" : [ "chrome" ]
    }, {
      "name" : "After",
      "uid" : "85107d678f33dc86",
      "parentUid" : "b6ef6097f18e51ff1ace593ffd1012c7",
      "status" : "broken",
      "time" : {
        "start" : 1546265195222,
        "stop" : 1546265196690,
        "duration" : 1468
      },
      "flaky" : true,
      "parameters" : [ "chrome" ]
    }, {
      "name" : "An information updated message will be displayed",
      "uid" : "ebb53af5e2a71184",
      "parentUid" : "b6ef6097f18e51ff1ace593ffd1012c7",
      "status" : "broken",
      "time" : {
        "start" : 1546269684673,
        "stop" : 1546269774677,
        "duration" : 90004
      },
      "flaky" : true,
      "parameters" : [ "chrome" ]
    }, {
      "name" : "I am loged in and didn't complete the registry",
      "uid" : "8b0b2f2361dd8b87",
      "parentUid" : "b6ef6097f18e51ff1ace593ffd1012c7",
      "status" : "passed",
      "time" : {
        "start" : 1546429483327,
        "stop" : 1546429489019,
        "duration" : 5692
      },
      "flaky" : true,
      "parameters" : [ "chrome" ]
    }, {
      "name" : "I am on the Information page",
      "uid" : "aca8b35d0fa1755b",
      "parentUid" : "b6ef6097f18e51ff1ace593ffd1012c7",
      "status" : "passed",
      "time" : {
        "start" : 1546429489020,
        "stop" : 1546429493247,
        "duration" : 4227
      },
      "flaky" : false,
      "parameters" : [ "chrome" ]
    }, {
      "name" : "I insert all requiered fields for user information",
      "uid" : "72bdbca493dfae25",
      "parentUid" : "b6ef6097f18e51ff1ace593ffd1012c7",
      "status" : "passed",
      "time" : {
        "start" : 1546429493249,
        "stop" : 1546429495103,
        "duration" : 1854
      },
      "flaky" : false,
      "parameters" : [ "chrome" ]
    }, {
      "name" : "I insert used email",
      "uid" : "8bc92115ee4b4805",
      "parentUid" : "b6ef6097f18e51ff1ace593ffd1012c7",
      "status" : "passed",
      "time" : {
        "start" : 1546429495106,
        "stop" : 1546429495448,
        "duration" : 342
      },
      "flaky" : false,
      "parameters" : [ "chrome" ]
    }, {
      "name" : "I select Save Changes",
      "uid" : "c49ee7b61713a0af",
      "parentUid" : "b6ef6097f18e51ff1ace593ffd1012c7",
      "status" : "passed",
      "time" : {
        "start" : 1546429495450,
        "stop" : 1546429495623,
        "duration" : 173
      },
      "flaky" : false,
      "parameters" : [ "chrome" ]
    }, {
      "name" : "An error message will be displayed",
      "uid" : "eda00e1d21ec62b1",
      "parentUid" : "b6ef6097f18e51ff1ace593ffd1012c7",
      "status" : "passed",
      "time" : {
        "start" : 1546429495624,
        "stop" : 1546429496179,
        "duration" : 555
      },
      "flaky" : false,
      "parameters" : [ "chrome" ]
    }, {
      "name" : "undefined",
      "uid" : "6cfcde47fd447dd5",
      "parentUid" : "b6ef6097f18e51ff1ace593ffd1012c7",
      "status" : "unknown",
      "time" : {
        "start" : 1546429496180,
        "stop" : 0,
        "duration" : -1546429496180
      },
      "flaky" : true,
      "parameters" : [ "chrome" ]
    } ],
    "uid" : "b6ef6097f18e51ff1ace593ffd1012c7"
  }, {
    "name" : "Insert user information Insert user information with missing field",
    "children" : [ {
      "name" : "I fill all requiered fields for user information",
      "uid" : "6d33b5c6be7cf9a9",
      "parentUid" : "1e56907b0a27279c6526d343cac06c11",
      "status" : "broken",
      "time" : {
        "start" : 1546264640291,
        "stop" : 1546264640291,
        "duration" : 0
      },
      "flaky" : true,
      "parameters" : [ "chrome" ]
    }, {
      "name" : "After",
      "uid" : "1c67c41b4b3a9d10",
      "parentUid" : "1e56907b0a27279c6526d343cac06c11",
      "status" : "broken",
      "time" : {
        "start" : 1546270462120,
        "stop" : 1546270463580,
        "duration" : 1460
      },
      "flaky" : true,
      "parameters" : [ "chrome" ]
    }, {
      "name" : "I erase \"first\" field",
      "uid" : "92fb8c3fdb816129",
      "parentUid" : "1e56907b0a27279c6526d343cac06c11",
      "status" : "passed",
      "time" : {
        "start" : 1546429510158,
        "stop" : 1546429510364,
        "duration" : 206
      },
      "flaky" : false,
      "parameters" : [ "chrome" ]
    }, {
      "name" : "I erase \"last\" field",
      "uid" : "7c27d705d0635ff",
      "parentUid" : "1e56907b0a27279c6526d343cac06c11",
      "status" : "passed",
      "time" : {
        "start" : 1546429523307,
        "stop" : 1546429523534,
        "duration" : 227
      },
      "flaky" : false,
      "parameters" : [ "chrome" ]
    }, {
      "name" : "I am loged in and didn't complete the registry",
      "uid" : "2d8e80d674dc68e7",
      "parentUid" : "1e56907b0a27279c6526d343cac06c11",
      "status" : "passed",
      "time" : {
        "start" : 1546429526362,
        "stop" : 1546429531609,
        "duration" : 5247
      },
      "flaky" : true,
      "parameters" : [ "chrome" ]
    }, {
      "name" : "I am on the Information page",
      "uid" : "1a525fe6a3bea414",
      "parentUid" : "1e56907b0a27279c6526d343cac06c11",
      "status" : "passed",
      "time" : {
        "start" : 1546429531611,
        "stop" : 1546429534851,
        "duration" : 3240
      },
      "flaky" : true,
      "parameters" : [ "chrome" ]
    }, {
      "name" : "I insert all requiered fields for user information",
      "uid" : "88adaf487f4bd8a7",
      "parentUid" : "1e56907b0a27279c6526d343cac06c11",
      "status" : "passed",
      "time" : {
        "start" : 1546429534853,
        "stop" : 1546429536053,
        "duration" : 1200
      },
      "flaky" : false,
      "parameters" : [ "chrome" ]
    }, {
      "name" : "I erase \"email\" field",
      "uid" : "df35a28a9ce90c96",
      "parentUid" : "1e56907b0a27279c6526d343cac06c11",
      "status" : "passed",
      "time" : {
        "start" : 1546429536056,
        "stop" : 1546429536266,
        "duration" : 210
      },
      "flaky" : false,
      "parameters" : [ "chrome" ]
    }, {
      "name" : "I select Save Changes",
      "uid" : "b9e9d044d7a83350",
      "parentUid" : "1e56907b0a27279c6526d343cac06c11",
      "status" : "passed",
      "time" : {
        "start" : 1546429536269,
        "stop" : 1546429536416,
        "duration" : 147
      },
      "flaky" : false,
      "parameters" : [ "chrome" ]
    }, {
      "name" : "An error is displayed showing that a field cannot be empty",
      "uid" : "2a0d050ee23921ed",
      "parentUid" : "1e56907b0a27279c6526d343cac06c11",
      "status" : "passed",
      "time" : {
        "start" : 1546429536418,
        "stop" : 1546429536539,
        "duration" : 121
      },
      "flaky" : false,
      "parameters" : [ "chrome" ]
    }, {
      "name" : "undefined",
      "uid" : "324565447095f3fd",
      "parentUid" : "1e56907b0a27279c6526d343cac06c11",
      "status" : "unknown",
      "time" : {
        "start" : 1546429536541,
        "stop" : 0,
        "duration" : -1546429536541
      },
      "flaky" : true,
      "parameters" : [ "chrome" ]
    } ],
    "uid" : "1e56907b0a27279c6526d343cac06c11"
  }, {
    "name" : "Create new registry Create new registry with a date before 2012",
    "children" : [ {
      "name" : "After",
      "uid" : "65b283a3fe32dc8",
      "parentUid" : "6796cf98f51802db3da003c603b73b14",
      "status" : "broken",
      "time" : {
        "start" : 1546271933840,
        "stop" : 1546272023841,
        "duration" : 90001
      },
      "flaky" : false,
      "parameters" : [ "chrome" ]
    }, {
      "name" : "I am signed up and on the welcome page of registry",
      "uid" : "a7a81dbc581fbbf9",
      "parentUid" : "6796cf98f51802db3da003c603b73b14",
      "status" : "passed",
      "time" : {
        "start" : 1546429487933,
        "stop" : 1546429493614,
        "duration" : 5681
      },
      "flaky" : true,
      "parameters" : [ "chrome" ]
    }, {
      "name" : "I fill al requiered fields for registry",
      "uid" : "60589bc74bfd44d0",
      "parentUid" : "6796cf98f51802db3da003c603b73b14",
      "status" : "passed",
      "time" : {
        "start" : 1546429493616,
        "stop" : 1546429496054,
        "duration" : 2438
      },
      "flaky" : false,
      "parameters" : [ "chrome" ]
    }, {
      "name" : "I go to the date page",
      "uid" : "e6498529e37338d1",
      "parentUid" : "6796cf98f51802db3da003c603b73b14",
      "status" : "passed",
      "time" : {
        "start" : 1546429496055,
        "stop" : 1546429496251,
        "duration" : 196
      },
      "flaky" : false,
      "parameters" : [ "chrome" ]
    }, {
      "name" : "I insert a date before 2012",
      "uid" : "9774d07d10a6354b",
      "parentUid" : "6796cf98f51802db3da003c603b73b14",
      "status" : "passed",
      "time" : {
        "start" : 1546429496254,
        "stop" : 1546429496809,
        "duration" : 555
      },
      "flaky" : false,
      "parameters" : [ "chrome" ]
    }, {
      "name" : "I select Customize your design",
      "uid" : "dcecd3d0e027409a",
      "parentUid" : "6796cf98f51802db3da003c603b73b14",
      "status" : "passed",
      "time" : {
        "start" : 1546429496810,
        "stop" : 1546429496885,
        "duration" : 75
      },
      "flaky" : false,
      "parameters" : [ "chrome" ]
    }, {
      "name" : "A invalid date error will be displayed",
      "uid" : "84f237db8c0bcf5b",
      "parentUid" : "6796cf98f51802db3da003c603b73b14",
      "status" : "passed",
      "time" : {
        "start" : 1546429496887,
        "stop" : 1546429496922,
        "duration" : 35
      },
      "flaky" : false,
      "parameters" : [ "chrome" ]
    }, {
      "name" : "undefined",
      "uid" : "8e68f3f723466b73",
      "parentUid" : "6796cf98f51802db3da003c603b73b14",
      "status" : "unknown",
      "time" : {
        "start" : 1546429496923,
        "stop" : 0,
        "duration" : -1546429496923
      },
      "flaky" : true,
      "parameters" : [ "chrome" ]
    } ],
    "uid" : "6796cf98f51802db3da003c603b73b14"
  }, {
    "name" : "Create new registry Create new registry",
    "children" : [ {
      "name" : "I am signed up and on the welcome page of registry",
      "uid" : "2a199e718c5af33e",
      "parentUid" : "f6677015ff837d6dc9061c19aa953803",
      "status" : "passed",
      "time" : {
        "start" : 1546429425711,
        "stop" : 1546429437279,
        "duration" : 11568
      },
      "flaky" : false,
      "parameters" : [ "chrome" ]
    }, {
      "name" : "I fill al requiered fields for registry",
      "uid" : "cfe15b9f657ecac6",
      "parentUid" : "f6677015ff837d6dc9061c19aa953803",
      "status" : "passed",
      "time" : {
        "start" : 1546429437282,
        "stop" : 1546429440434,
        "duration" : 3152
      },
      "flaky" : false,
      "parameters" : [ "chrome" ]
    }, {
      "name" : "I go to the date page",
      "uid" : "15ed5b2846ff932c",
      "parentUid" : "f6677015ff837d6dc9061c19aa953803",
      "status" : "passed",
      "time" : {
        "start" : 1546429440437,
        "stop" : 1546429440756,
        "duration" : 319
      },
      "flaky" : false,
      "parameters" : [ "chrome" ]
    }, {
      "name" : "I insert the date",
      "uid" : "b09dd266db516cdd",
      "parentUid" : "f6677015ff837d6dc9061c19aa953803",
      "status" : "passed",
      "time" : {
        "start" : 1546429440760,
        "stop" : 1546429441751,
        "duration" : 991
      },
      "flaky" : false,
      "parameters" : [ "chrome" ]
    }, {
      "name" : "I select Customize your design",
      "uid" : "c3e64ce0719e362d",
      "parentUid" : "f6677015ff837d6dc9061c19aa953803",
      "status" : "passed",
      "time" : {
        "start" : 1546429441753,
        "stop" : 1546429441876,
        "duration" : 123
      },
      "flaky" : false,
      "parameters" : [ "chrome" ]
    }, {
      "name" : "User creates a new registry and is brougth to designs page",
      "uid" : "683ea998fea4bc38",
      "parentUid" : "f6677015ff837d6dc9061c19aa953803",
      "status" : "passed",
      "time" : {
        "start" : 1546429441879,
        "stop" : 1546429443085,
        "duration" : 1206
      },
      "flaky" : false,
      "parameters" : [ "chrome" ]
    }, {
      "name" : "undefined",
      "uid" : "5dd4f16a142d4b88",
      "parentUid" : "f6677015ff837d6dc9061c19aa953803",
      "status" : "unknown",
      "time" : {
        "start" : 1546429443089,
        "stop" : 0,
        "duration" : -1546429443089
      },
      "flaky" : true,
      "parameters" : [ "chrome" ]
    } ],
    "uid" : "f6677015ff837d6dc9061c19aa953803"
  }, {
    "name" : "Performing a sign up Sign up using wedding website",
    "children" : [ {
      "name" : "I am on select product page",
      "uid" : "b84e868152ff13aa",
      "parentUid" : "c3da6ed6b58bc0b20d5e900d8ecb73ed",
      "status" : "passed",
      "time" : {
        "start" : 1546429425817,
        "stop" : 1546429432841,
        "duration" : 7024
      },
      "flaky" : false,
      "parameters" : [ "chrome" ]
    }, {
      "name" : "I select Wedding Website button",
      "uid" : "e0a5a5e7355c1aa",
      "parentUid" : "c3da6ed6b58bc0b20d5e900d8ecb73ed",
      "status" : "passed",
      "time" : {
        "start" : 1546429432842,
        "stop" : 1546429433657,
        "duration" : 815
      },
      "flaky" : false,
      "parameters" : [ "chrome" ]
    }, {
      "name" : "I sign up with correct email and password",
      "uid" : "a78e4634be7d33bd",
      "parentUid" : "c3da6ed6b58bc0b20d5e900d8ecb73ed",
      "status" : "passed",
      "time" : {
        "start" : 1546429433659,
        "stop" : 1546429435181,
        "duration" : 1522
      },
      "flaky" : false,
      "parameters" : [ "chrome" ]
    }, {
      "name" : "I select Sign up for free button",
      "uid" : "6f0cfef5db3fac01",
      "parentUid" : "c3da6ed6b58bc0b20d5e900d8ecb73ed",
      "status" : "passed",
      "time" : {
        "start" : 1546429435184,
        "stop" : 1546429435911,
        "duration" : 727
      },
      "flaky" : false,
      "parameters" : [ "chrome" ]
    }, {
      "name" : "User signs up",
      "uid" : "f91cfb253d5bc4ea",
      "parentUid" : "c3da6ed6b58bc0b20d5e900d8ecb73ed",
      "status" : "passed",
      "time" : {
        "start" : 1546429435913,
        "stop" : 1546429437550,
        "duration" : 1637
      },
      "flaky" : false,
      "parameters" : [ "chrome" ]
    }, {
      "name" : "undefined",
      "uid" : "70df593c14515798",
      "parentUid" : "c3da6ed6b58bc0b20d5e900d8ecb73ed",
      "status" : "unknown",
      "time" : {
        "start" : 1546429437555,
        "stop" : 0,
        "duration" : -1546429437555
      },
      "flaky" : true,
      "parameters" : [ "chrome" ]
    } ],
    "uid" : "c3da6ed6b58bc0b20d5e900d8ecb73ed"
  }, {
    "name" : "Performing a sign up Sign up using wedding website with invalid email",
    "children" : [ {
      "name" : "I sign up with missing \"@\" email and password",
      "uid" : "bfee5dfa760778e",
      "parentUid" : "71eac0a3b1b6cd6b316437bdd96bc679",
      "status" : "passed",
      "time" : {
        "start" : 1546429446413,
        "stop" : 1546429448164,
        "duration" : 1751
      },
      "flaky" : false,
      "parameters" : [ "chrome" ]
    }, {
      "name" : "I am on select product page",
      "uid" : "c3b98917a260c9d2",
      "parentUid" : "71eac0a3b1b6cd6b316437bdd96bc679",
      "status" : "passed",
      "time" : {
        "start" : 1546429449148,
        "stop" : 1546429452742,
        "duration" : 3594
      },
      "flaky" : false,
      "parameters" : [ "chrome" ]
    }, {
      "name" : "I select Wedding Website button",
      "uid" : "c6f086dae3d9a806",
      "parentUid" : "71eac0a3b1b6cd6b316437bdd96bc679",
      "status" : "passed",
      "time" : {
        "start" : 1546429452748,
        "stop" : 1546429453476,
        "duration" : 728
      },
      "flaky" : false,
      "parameters" : [ "chrome" ]
    }, {
      "name" : "I sign up with missing \".com\" email and password",
      "uid" : "a118bdb0398f22d1",
      "parentUid" : "71eac0a3b1b6cd6b316437bdd96bc679",
      "status" : "passed",
      "time" : {
        "start" : 1546429453477,
        "stop" : 1546429455253,
        "duration" : 1776
      },
      "flaky" : false,
      "parameters" : [ "chrome" ]
    }, {
      "name" : "I select Sign up for free button",
      "uid" : "c655d0bca4ba7667",
      "parentUid" : "71eac0a3b1b6cd6b316437bdd96bc679",
      "status" : "passed",
      "time" : {
        "start" : 1546429455256,
        "stop" : 1546429455873,
        "duration" : 617
      },
      "flaky" : false,
      "parameters" : [ "chrome" ]
    }, {
      "name" : "An error is displayed showing that email is invalid",
      "uid" : "499f2f17d23dd1a9",
      "parentUid" : "71eac0a3b1b6cd6b316437bdd96bc679",
      "status" : "passed",
      "time" : {
        "start" : 1546429455876,
        "stop" : 1546429455998,
        "duration" : 122
      },
      "flaky" : false,
      "parameters" : [ "chrome" ]
    }, {
      "name" : "Sign up for free button will be disabled",
      "uid" : "1db63d5aff4c079f",
      "parentUid" : "71eac0a3b1b6cd6b316437bdd96bc679",
      "status" : "passed",
      "time" : {
        "start" : 1546429456001,
        "stop" : 1546429456046,
        "duration" : 45
      },
      "flaky" : false,
      "parameters" : [ "chrome" ]
    } ],
    "uid" : "71eac0a3b1b6cd6b316437bdd96bc679"
  }, {
    "name" : "Create new registry Create new registry without date",
    "children" : [ {
      "name" : "I am signed up and on the welcome page of registry",
      "uid" : "d5ede5c1974caeb",
      "parentUid" : "9ee13e748cc9167081edd2c2ee034b35",
      "status" : "passed",
      "time" : {
        "start" : 1546429446793,
        "stop" : 1546429453549,
        "duration" : 6756
      },
      "flaky" : false,
      "parameters" : [ "chrome" ]
    }, {
      "name" : "I fill al requiered fields for registry",
      "uid" : "60b4d2f5831eae0c",
      "parentUid" : "9ee13e748cc9167081edd2c2ee034b35",
      "status" : "passed",
      "time" : {
        "start" : 1546429453552,
        "stop" : 1546429456045,
        "duration" : 2493
      },
      "flaky" : false,
      "parameters" : [ "chrome" ]
    }, {
      "name" : "I go to the date page",
      "uid" : "61fef85bd1e2701a",
      "parentUid" : "9ee13e748cc9167081edd2c2ee034b35",
      "status" : "passed",
      "time" : {
        "start" : 1546429456047,
        "stop" : 1546429456358,
        "duration" : 311
      },
      "flaky" : false,
      "parameters" : [ "chrome" ]
    }, {
      "name" : "I select We haven't decided yet",
      "uid" : "e2879e7053be2a1e",
      "parentUid" : "9ee13e748cc9167081edd2c2ee034b35",
      "status" : "passed",
      "time" : {
        "start" : 1546429456361,
        "stop" : 1546429456617,
        "duration" : 256
      },
      "flaky" : false,
      "parameters" : [ "chrome" ]
    }, {
      "name" : "I select Customize your design",
      "uid" : "84e7ae49c2320b12",
      "parentUid" : "9ee13e748cc9167081edd2c2ee034b35",
      "status" : "passed",
      "time" : {
        "start" : 1546429456620,
        "stop" : 1546429456845,
        "duration" : 225
      },
      "flaky" : false,
      "parameters" : [ "chrome" ]
    }, {
      "name" : "User creates a new registry and is brougth to designs page",
      "uid" : "de1a169c2f83ad34",
      "parentUid" : "9ee13e748cc9167081edd2c2ee034b35",
      "status" : "passed",
      "time" : {
        "start" : 1546429456847,
        "stop" : 1546429457954,
        "duration" : 1107
      },
      "flaky" : false,
      "parameters" : [ "chrome" ]
    }, {
      "name" : "undefined",
      "uid" : "28ebdc1ef85836b7",
      "parentUid" : "9ee13e748cc9167081edd2c2ee034b35",
      "status" : "unknown",
      "time" : {
        "start" : 1546429457956,
        "stop" : 0,
        "duration" : -1546429457956
      },
      "flaky" : true,
      "parameters" : [ "chrome" ]
    } ],
    "uid" : "9ee13e748cc9167081edd2c2ee034b35"
  }, {
    "name" : "Performing a sign up Sign up using wedding website with used email",
    "children" : [ {
      "name" : "I am on select product page",
      "uid" : "aa154a1b86ff350e",
      "parentUid" : "4b0c12275e150d559701fb9e608d1d52",
      "status" : "passed",
      "time" : {
        "start" : 1546429456072,
        "stop" : 1546429458978,
        "duration" : 2906
      },
      "flaky" : false,
      "parameters" : [ "chrome" ]
    }, {
      "name" : "I select Wedding Website button",
      "uid" : "d2ca7499abdcfdbb",
      "parentUid" : "4b0c12275e150d559701fb9e608d1d52",
      "status" : "passed",
      "time" : {
        "start" : 1546429458981,
        "stop" : 1546429459793,
        "duration" : 812
      },
      "flaky" : false,
      "parameters" : [ "chrome" ]
    }, {
      "name" : "I sign up with an used email and password",
      "uid" : "49d3d3902d8a5265",
      "parentUid" : "4b0c12275e150d559701fb9e608d1d52",
      "status" : "passed",
      "time" : {
        "start" : 1546429459796,
        "stop" : 1546429461832,
        "duration" : 2036
      },
      "flaky" : false,
      "parameters" : [ "chrome" ]
    }, {
      "name" : "I select Sign up for free button",
      "uid" : "7870000d299f09a9",
      "parentUid" : "4b0c12275e150d559701fb9e608d1d52",
      "status" : "passed",
      "time" : {
        "start" : 1546429461834,
        "stop" : 1546429462444,
        "duration" : 610
      },
      "flaky" : false,
      "parameters" : [ "chrome" ]
    }, {
      "name" : "An error is displayed showing that email is taken",
      "uid" : "cdbcf58eeee93d28",
      "parentUid" : "4b0c12275e150d559701fb9e608d1d52",
      "status" : "passed",
      "time" : {
        "start" : 1546429462447,
        "stop" : 1546429462590,
        "duration" : 143
      },
      "flaky" : false,
      "parameters" : [ "chrome" ]
    }, {
      "name" : "Sign up for free button will be disabled",
      "uid" : "e0d54bf56881a059",
      "parentUid" : "4b0c12275e150d559701fb9e608d1d52",
      "status" : "passed",
      "time" : {
        "start" : 1546429462593,
        "stop" : 1546429462629,
        "duration" : 36
      },
      "flaky" : false,
      "parameters" : [ "chrome" ]
    } ],
    "uid" : "4b0c12275e150d559701fb9e608d1d52"
  }, {
    "name" : "Create new registry Create new registry with missing field",
    "children" : [ {
      "name" : "I am signed up and on the welcome page of registry",
      "uid" : "8da1ecfcc26d3eea",
      "parentUid" : "387e06150ca8addf29de2b7c9f8353f9",
      "status" : "passed",
      "time" : {
        "start" : 1546429461472,
        "stop" : 1546429467155,
        "duration" : 5683
      },
      "flaky" : false,
      "parameters" : [ "chrome" ]
    }, {
      "name" : "I fill al requiered fields for registry except one",
      "uid" : "a174ea52d7b9f20b",
      "parentUid" : "387e06150ca8addf29de2b7c9f8353f9",
      "status" : "passed",
      "time" : {
        "start" : 1546429467158,
        "stop" : 1546429469811,
        "duration" : 2653
      },
      "flaky" : false,
      "parameters" : [ "chrome" ]
    }, {
      "name" : "I go to the date page",
      "uid" : "660635202ea6d6af",
      "parentUid" : "387e06150ca8addf29de2b7c9f8353f9",
      "status" : "passed",
      "time" : {
        "start" : 1546429469813,
        "stop" : 1546429469976,
        "duration" : 163
      },
      "flaky" : false,
      "parameters" : [ "chrome" ]
    }, {
      "name" : "An error from missing field will show",
      "uid" : "4b880302321e8291",
      "parentUid" : "387e06150ca8addf29de2b7c9f8353f9",
      "status" : "passed",
      "time" : {
        "start" : 1546429469978,
        "stop" : 1546429470046,
        "duration" : 68
      },
      "flaky" : false,
      "parameters" : [ "chrome" ]
    }, {
      "name" : "Date page button will be disabled",
      "uid" : "3bd995c015167af8",
      "parentUid" : "387e06150ca8addf29de2b7c9f8353f9",
      "status" : "passed",
      "time" : {
        "start" : 1546429470049,
        "stop" : 1546429470097,
        "duration" : 48
      },
      "flaky" : false,
      "parameters" : [ "chrome" ]
    }, {
      "name" : "undefined",
      "uid" : "d631fec00e7866ba",
      "parentUid" : "387e06150ca8addf29de2b7c9f8353f9",
      "status" : "unknown",
      "time" : {
        "start" : 1546429470100,
        "stop" : 0,
        "duration" : -1546429470100
      },
      "flaky" : true,
      "parameters" : [ "chrome" ]
    } ],
    "uid" : "387e06150ca8addf29de2b7c9f8353f9"
  }, {
    "name" : "Performing a sign up Sign up using wedding website with no email",
    "children" : [ {
      "name" : "I am on select product page",
      "uid" : "57baf9e23befa2be",
      "parentUid" : "ec5414a47faff76f897f8a281923f3d3",
      "status" : "passed",
      "time" : {
        "start" : 1546429462647,
        "stop" : 1546429465784,
        "duration" : 3137
      },
      "flaky" : false,
      "parameters" : [ "chrome" ]
    }, {
      "name" : "I select Wedding Website button",
      "uid" : "e136572b9e5fc93c",
      "parentUid" : "ec5414a47faff76f897f8a281923f3d3",
      "status" : "passed",
      "time" : {
        "start" : 1546429465787,
        "stop" : 1546429466570,
        "duration" : 783
      },
      "flaky" : false,
      "parameters" : [ "chrome" ]
    }, {
      "name" : "I sign up with no email and password",
      "uid" : "e43d4227ba7b9fbc",
      "parentUid" : "ec5414a47faff76f897f8a281923f3d3",
      "status" : "passed",
      "time" : {
        "start" : 1546429466572,
        "stop" : 1546429467498,
        "duration" : 926
      },
      "flaky" : false,
      "parameters" : [ "chrome" ]
    }, {
      "name" : "I select Sign up for free button",
      "uid" : "57d099cf85397f1b",
      "parentUid" : "ec5414a47faff76f897f8a281923f3d3",
      "status" : "passed",
      "time" : {
        "start" : 1546429467500,
        "stop" : 1546429468135,
        "duration" : 635
      },
      "flaky" : false,
      "parameters" : [ "chrome" ]
    }, {
      "name" : "An error is displayed showing that an email is requiered",
      "uid" : "99d43fb7dbf24c68",
      "parentUid" : "ec5414a47faff76f897f8a281923f3d3",
      "status" : "passed",
      "time" : {
        "start" : 1546429468137,
        "stop" : 1546429468240,
        "duration" : 103
      },
      "flaky" : false,
      "parameters" : [ "chrome" ]
    }, {
      "name" : "Sign up for free button will be disabled",
      "uid" : "f5990bca2ec9f66d",
      "parentUid" : "ec5414a47faff76f897f8a281923f3d3",
      "status" : "passed",
      "time" : {
        "start" : 1546429468242,
        "stop" : 1546429468279,
        "duration" : 37
      },
      "flaky" : false,
      "parameters" : [ "chrome" ]
    } ],
    "uid" : "ec5414a47faff76f897f8a281923f3d3"
  }, {
    "name" : "Performing a sign up Sign up using wedding website with a shorter than 8 characters password",
    "children" : [ {
      "name" : "I am on select product page",
      "uid" : "81f620ac61bb3f26",
      "parentUid" : "101d0924bbb82bf9276325e509665eba",
      "status" : "passed",
      "time" : {
        "start" : 1546429468299,
        "stop" : 1546429471352,
        "duration" : 3053
      },
      "flaky" : false,
      "parameters" : [ "chrome" ]
    }, {
      "name" : "I select Wedding Website button",
      "uid" : "411202b622ffff03",
      "parentUid" : "101d0924bbb82bf9276325e509665eba",
      "status" : "passed",
      "time" : {
        "start" : 1546429471354,
        "stop" : 1546429472102,
        "duration" : 748
      },
      "flaky" : false,
      "parameters" : [ "chrome" ]
    }, {
      "name" : "I sign up with email and a shorter than 8 caracters password",
      "uid" : "5cd387e6e211a288",
      "parentUid" : "101d0924bbb82bf9276325e509665eba",
      "status" : "passed",
      "time" : {
        "start" : 1546429472105,
        "stop" : 1546429473380,
        "duration" : 1275
      },
      "flaky" : false,
      "parameters" : [ "chrome" ]
    }, {
      "name" : "I select Sign up for free button",
      "uid" : "9a54e17cb59a38bf",
      "parentUid" : "101d0924bbb82bf9276325e509665eba",
      "status" : "passed",
      "time" : {
        "start" : 1546429473382,
        "stop" : 1546429474004,
        "duration" : 622
      },
      "flaky" : false,
      "parameters" : [ "chrome" ]
    }, {
      "name" : "An error is displayed showing that the password is invalid",
      "uid" : "61adb8d4c15f6e83",
      "parentUid" : "101d0924bbb82bf9276325e509665eba",
      "status" : "passed",
      "time" : {
        "start" : 1546429474005,
        "stop" : 1546429474126,
        "duration" : 121
      },
      "flaky" : true,
      "parameters" : [ "chrome" ]
    }, {
      "name" : "Sign up for free button will be disabled",
      "uid" : "6450c7fbc9f4ad04",
      "parentUid" : "101d0924bbb82bf9276325e509665eba",
      "status" : "passed",
      "time" : {
        "start" : 1546429474128,
        "stop" : 1546429474162,
        "duration" : 34
      },
      "flaky" : false,
      "parameters" : [ "chrome" ]
    } ],
    "uid" : "101d0924bbb82bf9276325e509665eba"
  }, {
    "name" : "Create new registry Create new registry with invalid date",
    "children" : [ {
      "name" : "I am signed up and on the welcome page of registry",
      "uid" : "70426f5976024f0b",
      "parentUid" : "ae67dda3117ec4b1560c569a1fd3be4c",
      "status" : "passed",
      "time" : {
        "start" : 1546429473905,
        "stop" : 1546429480123,
        "duration" : 6218
      },
      "flaky" : false,
      "parameters" : [ "chrome" ]
    }, {
      "name" : "I fill al requiered fields for registry",
      "uid" : "92e8472099a8e247",
      "parentUid" : "ae67dda3117ec4b1560c569a1fd3be4c",
      "status" : "passed",
      "time" : {
        "start" : 1546429480125,
        "stop" : 1546429482712,
        "duration" : 2587
      },
      "flaky" : false,
      "parameters" : [ "chrome" ]
    }, {
      "name" : "I go to the date page",
      "uid" : "59f6aff98b61982a",
      "parentUid" : "ae67dda3117ec4b1560c569a1fd3be4c",
      "status" : "passed",
      "time" : {
        "start" : 1546429482715,
        "stop" : 1546429482990,
        "duration" : 275
      },
      "flaky" : false,
      "parameters" : [ "chrome" ]
    }, {
      "name" : "I insert invalid date",
      "uid" : "8d61a8fc753dace",
      "parentUid" : "ae67dda3117ec4b1560c569a1fd3be4c",
      "status" : "passed",
      "time" : {
        "start" : 1546429482994,
        "stop" : 1546429483825,
        "duration" : 831
      },
      "flaky" : false,
      "parameters" : [ "chrome" ]
    }, {
      "name" : "I select Customize your design",
      "uid" : "ddbae40f6c4d5e3f",
      "parentUid" : "ae67dda3117ec4b1560c569a1fd3be4c",
      "status" : "passed",
      "time" : {
        "start" : 1546429483827,
        "stop" : 1546429483952,
        "duration" : 125
      },
      "flaky" : false,
      "parameters" : [ "chrome" ]
    }, {
      "name" : "A invalid date error will be displayed",
      "uid" : "29cb275cc7bc6fcc",
      "parentUid" : "ae67dda3117ec4b1560c569a1fd3be4c",
      "status" : "passed",
      "time" : {
        "start" : 1546429483953,
        "stop" : 1546429484014,
        "duration" : 61
      },
      "flaky" : false,
      "parameters" : [ "chrome" ]
    }, {
      "name" : "undefined",
      "uid" : "bd58b9abcb9fc5cb",
      "parentUid" : "ae67dda3117ec4b1560c569a1fd3be4c",
      "status" : "unknown",
      "time" : {
        "start" : 1546429484017,
        "stop" : 0,
        "duration" : -1546429484017
      },
      "flaky" : true,
      "parameters" : [ "chrome" ]
    } ],
    "uid" : "ae67dda3117ec4b1560c569a1fd3be4c"
  }, {
    "name" : "Performing a sign up Sign up using wedding website with no password",
    "children" : [ {
      "name" : "I am on select product page",
      "uid" : "4f3e3eb606e609f",
      "parentUid" : "7521a18a2653710d7cef7b4cb02d68ec",
      "status" : "passed",
      "time" : {
        "start" : 1546429474182,
        "stop" : 1546429477439,
        "duration" : 3257
      },
      "flaky" : true,
      "parameters" : [ "chrome" ]
    }, {
      "name" : "I select Wedding Website button",
      "uid" : "d5fbf925e0bc278e",
      "parentUid" : "7521a18a2653710d7cef7b4cb02d68ec",
      "status" : "passed",
      "time" : {
        "start" : 1546429477441,
        "stop" : 1546429478238,
        "duration" : 797
      },
      "flaky" : false,
      "parameters" : [ "chrome" ]
    }, {
      "name" : "I sign up with email and no password",
      "uid" : "8e93eb8517f36b09",
      "parentUid" : "7521a18a2653710d7cef7b4cb02d68ec",
      "status" : "passed",
      "time" : {
        "start" : 1546429478240,
        "stop" : 1546429479624,
        "duration" : 1384
      },
      "flaky" : false,
      "parameters" : [ "chrome" ]
    }, {
      "name" : "I select Sign up for free button",
      "uid" : "bc54e073a4665b4b",
      "parentUid" : "7521a18a2653710d7cef7b4cb02d68ec",
      "status" : "passed",
      "time" : {
        "start" : 1546429479626,
        "stop" : 1546429480296,
        "duration" : 670
      },
      "flaky" : false,
      "parameters" : [ "chrome" ]
    }, {
      "name" : "An error is displayed showing that a password is requiered",
      "uid" : "659ad9b684810ba4",
      "parentUid" : "7521a18a2653710d7cef7b4cb02d68ec",
      "status" : "passed",
      "time" : {
        "start" : 1546429480298,
        "stop" : 1546429480400,
        "duration" : 102
      },
      "flaky" : false,
      "parameters" : [ "chrome" ]
    }, {
      "name" : "Sign up for free button will be disabled",
      "uid" : "b22cc667e39eeb",
      "parentUid" : "7521a18a2653710d7cef7b4cb02d68ec",
      "status" : "passed",
      "time" : {
        "start" : 1546429480401,
        "stop" : 1546429480434,
        "duration" : 33
      },
      "flaky" : false,
      "parameters" : [ "chrome" ]
    } ],
    "uid" : "7521a18a2653710d7cef7b4cb02d68ec"
  } ]
}